[
  {
    "id": 2,
    "sigla": "PB",
    "nome": "Paraíba",
    "municipios": [
        {
          "id": 1,
          "nome": "Areial",
          "url":"https://areial.iescolaronline.com.br/"
        },
        {
          "id": 2,
          "nome": "Bayeux",
          "url":"https://bayeux.iescolaronline.com.br/"
        },
         {
          "id": 3,
          "nome": "Boa Ventura",
          "url":"https://boaventura.iescolaronline.com.br/"
        },
        {
          "id": 4,
          "nome": "Cajazeirinhas",
          "url":"https://cajazeirinhas.iescolaronline.com.br/"
        },
         {
          "id": 5,
          "nome": "Curral Velho",
          "url":"https://curralvelho.iescolaronline.com.br/"
        },
        {
          "id": 6,
          "nome": "Malta",
          "url":"https://malta.iescolaronline.com.br/"
        },
        {
          "id": 7,
          "nome": "Marizópolis",
          "url":"https://marizopolis.iescolaronline.com.br/"
        },
        {
          "id": 8,
          "nome": "Mulungu",
          "url":"https://mulungu.iescolaronline.com.br/"
        },
        {
          "id": 9,
          "nome": "São José da Lagoa Tapada",
          "url":"https://sjlt.iescolaronline.com.br/"
        },
        {
          "id": 10,
          "nome": "Geração",
          "url":"https://egc.iescolaronline.com.br/"
        },
		{
          "id": 11,
          "nome": "São Sebastião do Umbuzeiro",
          "url":"https://ssumbuzeiro.iescolaronline.com.br/"
        },
		{
          "id": 12,
          "nome": "São João do Rio do Peixe",
          "url":"https://sjrp.iescolaronline.com.br/"
        },
        {
          "id": 13,
          "nome": "São Mamede",
          "url":"https://saomamede.iescolaronline.com.br/"
        },
        {
          "id": 14,
          "nome": "Manaíra",
          "url":"https://manaira.iescolaronline.com.br/"
        },
        {
          "id": 15,
          "nome": "Poço José de Moura",
          "url":"https://pjm.iescolaronline.com.br/"
        },
        {
          "id": 16,
          "nome": "Paulista",
          "url":"https://paulista.iescolaronline.com.br/"
        },
        {
          "id": 17,
          "nome": "Pocinhos",
          "url":"https://pocinhos.iescolaronline.com.br/"
        },
        {
          "id": 18,
          "nome": "Diamante",
          "url":"https://diamante.iescolaronline.com.br/"
        },
         {
          "id": 19,
          "nome": "São Vicente do Seridó",
          "url":"https://svserido.iescolaronline.com.br/"
        },
         {
          "id": 20,
          "nome": "Triunfo",
          "url":"https://triunfo.iescolaronline.com.br/"
        },
        {
          "id": 21,
          "nome": "Itaporanga",
          "url":"https://itaporanga.iescolaronline.com.br/"
        },
        {
          "id": 22,
          "nome": "Juru",
          "url":"https://juru.iescolaronline.com.br/"
        },
        {
          "id": 23,
          "nome": "Pedra Branca",
          "url":"https://pedrabranca.iescolaronline.com.br/"
        },
        {
          "id": 24,
          "nome": "Serra Grande",
          "url":"https://serragrande.iescolaronline.com.br/"
        },
        {
          "id": 25,
          "nome": "Santana de Mangueira",
          "url":"https://sm.iescolaronline.com.br/"
        },
        {
          "id": 26,
          "nome": "Santa Helena",
          "url":"https://santahelena.iescolaronline.com.br/"
        },
        {
          "id": 27,
          "nome": "Condado",
          "url":"https://condadopb.iescolaronline.com.br/"
        },
        {
          "id": 28,
          "nome": "São José de Caiana",
          "url":"https://saojosedecaiana.iescolaronline.com.br/"
        },
        {
          "id": 29,
          "nome": "Colégio Batista",
          "url":"https://colegiobatista.iescolaronline.com.br/"
        },
        {
          "id": 30,
          "nome": "Vista Serrana",
          "url":"https://vistaserrana.iescolaronline.com.br/"
        },
        {
          "id": 31,
          "nome": "Barra de Santa Rosa",
          "url":"https://barradesantarosa.iescolaronline.com.br/"
        },
        {
          "id": 32,
          "nome": "Uiraúna",
          "url":"https://uirauna.iescolaronline.com.br/"
        },
        {
          "id": 33,
          "nome": "Lastro",
          "url":"https://lastro.iescolaronline.com.br/"
        },
        {
          "id": 33,
          "nome": "Soledade",
          "url":"https://soledade.iescolaronline.com.br/"
        }
    ]
  },
  {
    "id": 3,
    "sigla": "PE",
    "nome": "Pernambuco",
    "municipios": [
        {
        "id": 1,
        "nome": "Condado",
        "url":"https://condado.iescolaronline.com.br/"
        },
        {
          "id": 2,
          "nome": "Quipapá",
          "url":"https://quipapa.iescolaronline.com.br/"
        },
        {
          "id": 3,
          "nome": "Tuparetama",
          "url":"https://tuparetama.iescolaronline.com.br/"
        },
        {
          "id": 4,
          "nome": "Itambé",
          "url":"https://itambe.iescolaronline.com.br/"
        },
        {
          "id": 5,
          "nome": "Santa Cruz da Baixa Verde",
          "url":"https://scbv.iescolaronline.com.br/"
        }
    ]
  },
  {
    "id": 4,
    "sigla": "RN",
    "nome": "Rio Grande do Norte",
    "municipios": [
        {
        "id": 1,
        "nome": "Encanto",
        "url":"https://encanto.iescolaronline.com.br/"
        },
        {
          "id": 2,
          "nome": "Marcelino Vieira",
          "url":"https://marcelinovieira.iescolaronline.com.br/"
        },
        {
          "id": 3,
          "nome": "Rafael Fernandes",
          "url":"https://rafaelfernandes.iescolaronline.com.br/"
        },
        {
          "id": 4,
          "nome": "Umarizal",
          "url":"https://umarizal.iescolaronline.com.br/"
        },
        {
          "id": 5,
          "nome": "Venha-Ver",
          "url":"https://venhaver.iescolaronline.com.br/"
        }
    ]
  },
  {
    "id": 5,
    "sigla": "MG",
    "nome": "Minas Gerais",
    "municipios": [
        {
        "id": 1,
        "nome": "ARINOS",
        "url":"https://arinos.iescolaronline.com.br/"
        }
    ]
  },
  {
    "id": 6,
    "sigla": "APR",
    "nome": "APRESENTAÇÃO",
    "municipios": [
        {
        "id": 1,
        "nome": "Apresentação",
        "url":"https://apresentacao.iescolaronline.com.br/"
        }
    ]
  }
]
